Data Cipher’s Project Lab - Data
…
Click here to download the associated .RData file for Dataset 3.

Note

In the data pre-processing phase, we used ChatGPT to provide necessary functions and increase the quality of our content. Some of the functions are: “mutate_at”, “na.omit”, “gsub”.

3 Exploratory Data Analysis

In our project, we are working on three data sets, all of which were sourced from the Turkish Statistical Institute’s Türkiye Health Survey that was conducted in 2022.

3.1 Dataset 1 : The Percentage of Main Diseases/Health Problems Declared by Individuals in the Last 12 Months by Sex, 2016-2022

This data set showcases the percentage of health problems by sex. Only people over the age of 15 were considered for the study, and Alzheimer was evaluated for individuals in the 65+ age group.

# A tibble: 102 × 4
   Diseases  Gender  Year Percentage
   <chr>     <chr>  <dbl>      <dbl>
 1 Allergy   men     2016       7.54
 2 Allergy   men     2019       8.93
 3 Allergy   men     2022       6.57
 4 Allergy   women   2016      13.9 
 5 Allergy   women   2019      15.6 
 6 Allergy   women   2022      12.5 
 7 Alzheimer men     2016       5.10
 8 Alzheimer men     2019       5.96
 9 Alzheimer men     2022       5.07
10 Alzheimer women   2016       6.07
# ℹ 92 more rows
…
The distribution of declared health problems for both genders, 2022

3.2 Data Set 2 : The Percentage of Individuals’ Status of Alcohol Use by Sex and Age Group, 2016-2022

This data set showcases the percentage of individuals’ alcohol consumption status by sex and age group.

The first column of the table below shows the various age ranges from the study, starting from age 15 and going all the way up to 75+.

The second column, titled usage, has three different field values: * Consumers : Indicates the individual partakes in regular alcohol consumption. * Doesn’t consume : Means the individual has consumed alcohol before, but not anymore/not regularly. * Never consume : Indicates the individual has never consumed alcohol before.

# A tibble: 126 × 5
   age   usage           gender  year  rate
   <chr> <chr>           <chr>  <dbl> <dbl>
 1 15-24 Consumers       men     2016 13.1 
 2 15-24 Consumers       men     2019 16.4 
 3 15-24 Consumers       men     2022 11.6 
 4 15-24 Consumers       women   2016  5.41
 5 15-24 Consumers       women   2019  6.25
 6 15-24 Consumers       women   2022  4.93
 7 15-24 Doesn't consume men     2016  5.92
 8 15-24 Doesn't consume men     2019  5.74
 9 15-24 Doesn't consume men     2022  2.34
10 15-24 Doesn't consume women   2016  3.95
# ℹ 116 more rows
…
The distribution of alcohol consumption habits for both genders; 2016, 2019, 2022

3.3 Data Set 3 : Body mass index distribution of individuals by sex, 2008-2022

This data set showcases the body mass index distribution of male and female individuals, as well as a total for the year of each sub-study. The data here was collected every two years starting from 2008, and ending at 2022.

# A tibble: 56 × 4
    Year Sex    Category      Percentage
   <dbl> <chr>  <chr>              <dbl>
 1  2008 Male   Underweight         2.7 
 2  2008 Male   Normal_weight      48.1 
 3  2008 Male   Pre_Obese          36.9 
 4  2008 Male   Obese              12.3 
 5  2008 Female Underweight         5.9 
 6  2008 Female Normal_weight      48.2 
 7  2008 Female Pre_Obese          27.4 
 8  2008 Female Obese              18.5 
 9  2010 Male   Underweight         3.46
10  2010 Male   Normal_weight      46.1 
# ℹ 46 more rows
…
